<?xml version="1.0" encoding="UTF-8" standalone="no"?>
<svg
   xml:space="preserve"
   viewBox="0 0 32 32"
   version="1.1"
   id="svg4"
   sodipodi:docname="share-twitter-symbolic.svg"
   width="32"
   height="32"
   inkscape:version="1.2.1 (9c6d41e410, 2022-07-14)"
   xmlns:inkscape="http://www.inkscape.org/namespaces/inkscape"
   xmlns:sodipodi="http://sodipodi.sourceforge.net/DTD/sodipodi-0.dtd"
   xmlns="http://www.w3.org/2000/svg"
   xmlns:svg="http://www.w3.org/2000/svg"><defs
   id="defs8" /><sodipodi:namedview
   id="namedview6"
   pagecolor="#ffffff"
   bordercolor="#666666"
   borderopacity="1.0"
   inkscape:showpageshadow="2"
   inkscape:pageopacity="0.0"
   inkscape:pagecheckerboard="0"
   inkscape:deskcolor="#d1d1d1"
   showgrid="false"
   inkscape:zoom="14.239189"
   inkscape:cx="25.352567"
   inkscape:cy="25.563253"
   inkscape:window-width="1920"
   inkscape:window-height="995"
   inkscape:window-x="0"
   inkscape:window-y="0"
   inkscape:window-maximized="1"
   inkscape:current-layer="svg4" />
  <path
   fill="#1d9bf0"
   d="m 28.72395,9.4729411 c 0.0195,0.2821051 0.0195,0.5642089 0.0195,0.8489139 0,8.67504 -6.6041,18.67999 -18.67999,18.67999 v -0.005 C 6.4962,29.001845 3.00305,27.980235 0,26.053605 c 0.51871,0.0624 1.04002,0.0936 1.56262,0.0949 2.95625,0.003 5.828,-0.98932 8.1537303,-2.81585 C 6.90701,23.279355 4.44347,21.447625 3.58286,18.773485 c 0.98411,0.1898 1.99813,0.1508 2.96404,-0.1131 -3.06285,-0.61881 -5.26638,-3.30985 -5.26638,-6.435101 v -0.0832 c 0.91261,0.508308 1.93443,0.790412 2.97965,0.821613 -2.88475,-1.92793 -3.77396,-5.7655899 -2.03194,-8.7660369 3.33326,4.101564 8.25123,6.5950029 13.53062,6.8589069 -0.52911,-2.2802349 0.1937,-4.6696729 1.89933,-6.2725979 2.64424,-2.485639 6.803,-2.358237 9.28864,0.284705 1.47032,-0.289905 2.87955,-0.829413 4.16917,-1.593825 -0.49011,1.519723 -1.51583,2.810644 -2.88605,3.630956 1.30132,-0.153402 2.57274,-0.501807 3.77006,-1.033516 -0.88141,1.320821 -1.99163,2.471339 -3.27605,3.400853 z"
   id="path2"
   style="stroke-width:0.130002;fill:#bebebe;fill-opacity:1" />
</svg>
